<?xml version="1.0" encoding="UTF-8" standalone="no"?>
<!-- Created with Inkscape (http://www.inkscape.org/) -->

<svg
   xmlns:dc="http://purl.org/dc/elements/1.1/"
   xmlns:cc="http://creativecommons.org/ns#"
   xmlns:rdf="http://www.w3.org/1999/02/22-rdf-syntax-ns#"
   xmlns:svg="http://www.w3.org/2000/svg"
   xmlns="http://www.w3.org/2000/svg"
   xmlns:xlink="http://www.w3.org/1999/xlink"
   xmlns:sodipodi="http://sodipodi.sourceforge.net/DTD/sodipodi-0.dtd"
   xmlns:inkscape="http://www.inkscape.org/namespaces/inkscape"
   width="1234.5154mm"
   height="368.95862mm"
   viewBox="0 0 1234.5154 368.95861"
   version="1.1"
   id="svg8"
   inkscape:version="0.92.2 5c3e80d, 2017-08-06"
   sodipodi:docname="calibrae-logo-withtagline-fordarkbg.svg"
   inkscape:export-filename="/home/loki/src/git.calibr.ae/calibrae/spawn/assets/calibrae-logo-withtagline-fordarkbg.png"
   inkscape:export-xdpi="45.43"
   inkscape:export-ydpi="45.43">
  <defs
     id="defs2">
    <linearGradient
       inkscape:collect="always"
       id="linearGradient4656">
      <stop
         style="stop-color:#02f802;stop-opacity:1;"
         offset="0"
         id="stop4652" />
      <stop
         style="stop-color:#02f802;stop-opacity:0;"
         offset="1"
         id="stop4654" />
    </linearGradient>
    <linearGradient
       inkscape:collect="always"
       id="linearGradient4586">
      <stop
         style="stop-color:#208f20;stop-opacity:1;"
         offset="0"
         id="stop4582" />
      <stop
         style="stop-color:#208f20;stop-opacity:0;"
         offset="1"
         id="stop4584" />
    </linearGradient>
    <radialGradient
       inkscape:collect="always"
       xlink:href="#linearGradient4586"
       id="radialGradient4590-3"
       cx="107.34393"
       cy="138.64958"
       fx="107.34393"
       fy="138.64958"
       r="84.932663"
       gradientTransform="matrix(3.7795276,0,0,3.0121921,-84.703996,-161.80566)"
       gradientUnits="userSpaceOnUse" />
    <radialGradient
       inkscape:collect="always"
       xlink:href="#linearGradient4656"
       id="radialGradient4658"
       cx="89.523674"
       cy="175.0977"
       fx="89.523674"
       fy="175.0977"
       r="84.932724"
       gradientTransform="matrix(1,0,0,0.7969752,-10.583293,46.132521)"
       gradientUnits="userSpaceOnUse" />
    <filter
       inkscape:collect="always"
       style="color-interpolation-filters:sRGB"
       id="filter1102"
       x="-0.039892849"
       width="1.0797857"
       y="-0.050055321"
       height="1.1001107">
      <feGaussianBlur
         inkscape:collect="always"
         stdDeviation="2.8235071"
         id="feGaussianBlur1104" />
    </filter>
  </defs>
  <sodipodi:namedview
     id="base"
     pagecolor="#ffffff"
     bordercolor="#666666"
     borderopacity="1.0"
     inkscape:pageopacity="0.0"
     inkscape:pageshadow="2"
     inkscape:zoom="0.24748738"
     inkscape:cx="1895.8414"
     inkscape:cy="-1521.7614"
     inkscape:document-units="mm"
     inkscape:current-layer="layer1"
     showgrid="false"
     inkscape:window-width="3757"
     inkscape:window-height="2089"
     inkscape:window-x="1920"
     inkscape:window-y="29"
     inkscape:window-maximized="1"
     showguides="false"
     inkscape:lockguides="false" />
  <metadata
     id="metadata5">
    <rdf:RDF>
      <cc:Work
         rdf:about="">
        <dc:format>image/svg+xml</dc:format>
        <dc:type
           rdf:resource="http://purl.org/dc/dcmitype/StillImage" />
        <dc:title />
      </cc:Work>
    </rdf:RDF>
  </metadata>
  <g
     inkscape:label="Layer 1"
     inkscape:groupmode="layer"
     id="layer1"
     transform="translate(31.995636,-74.783363)">
    <text
       xml:space="preserve"
       style="font-style:normal;font-weight:normal;font-size:35.12888336px;line-height:1.25;font-family:sans-serif;letter-spacing:0px;word-spacing:0px;fill:#ffffff;fill-opacity:1;stroke:none;stroke-width:0.87822205"
       x="195.28093"
       y="236.2659"
       id="text836"><tspan
         sodipodi:role="line"
         id="tspan834"
         x="195.28093"
         y="236.2659"
         style="font-style:normal;font-variant:normal;font-weight:900;font-stretch:normal;font-size:168.61863708px;font-family:Overlock;-inkscape-font-specification:'Overlock, Heavy';font-variant-ligatures:normal;font-variant-caps:normal;font-variant-numeric:normal;font-feature-settings:normal;text-align:start;writing-mode:lr-tb;text-anchor:start;fill:#ffffff;fill-opacity:1;stroke-width:0.87822205">Calibrae</tspan></text>
    <circle
       style="opacity:1;vector-effect:none;fill:#2f3136;fill-opacity:1;stroke:none;stroke-width:22.14744759;stroke-linecap:round;stroke-linejoin:round;stroke-miterlimit:4;stroke-dasharray:none;stroke-dashoffset:0;stroke-opacity:1"
       id="path1106"
       cx="78.921211"
       cy="185.70021"
       r="110.91685"
       inkscape:export-xdpi="192.92"
       inkscape:export-ydpi="192.92" />
    <path
       style="color:#000000;font-style:normal;font-variant:normal;font-weight:normal;font-stretch:normal;font-size:medium;line-height:normal;font-family:sans-serif;font-variant-ligatures:normal;font-variant-position:normal;font-variant-caps:normal;font-variant-numeric:normal;font-variant-alternates:normal;font-feature-settings:normal;text-indent:0;text-align:start;text-decoration:none;text-decoration-line:none;text-decoration-style:solid;text-decoration-color:#000000;letter-spacing:normal;word-spacing:normal;text-transform:none;writing-mode:lr-tb;direction:ltr;text-orientation:mixed;dominant-baseline:auto;baseline-shift:baseline;text-anchor:start;white-space:normal;shape-padding:0;clip-rule:nonzero;display:inline;overflow:visible;visibility:visible;opacity:1;isolation:auto;mix-blend-mode:normal;color-interpolation:sRGB;color-interpolation-filters:linearRGB;solid-color:#000000;solid-opacity:1;vector-effect:none;fill:#208f20;fill-opacity:1;fill-rule:nonzero;stroke:none;stroke-width:23.84797859;stroke-linecap:round;stroke-linejoin:round;stroke-miterlimit:4;stroke-dasharray:none;stroke-dashoffset:0;stroke-opacity:1;filter:url(#filter1102);color-rendering:auto;image-rendering:auto;shape-rendering:auto;text-rendering:auto;enable-background:accumulate"
       d="m 123.31526,118.01389 c -17.02206,0.54194 -28.664284,14.03176 -35.111323,28.72656 -3.16272,7.20881 -5.378982,15.12943 -6.667971,23.3164 -4.20725,-16.34882 -12.645948,-31.65168 -27.105467,-40.16015 -15.077085,-8.87187 -35.960154,-7.3822 -55.37304534,6.78125 A 11.925182,11.925182 0 1 0 13.112141,155.94357 c 14.356922,-10.47466 22.239743,-9.60117 29.222656,-5.49219 5.411817,3.1845 10.591414,10.17334 14.044922,19.00977 -26.216806,1.61776 -45.748139,15.64585 -54.3652343,32.625 -5.491951,10.82135 -6.997347,23.47042 -1.25390704,34.33008 5.74344104,10.85965 18.70604834,17.279 33.68554534,16.9414 20.993987,-0.47314 36.763034,-13.47653 43.957034,-29.45312 2.023668,-4.4942 3.471849,-9.21595 4.494138,-14.04297 2.906012,11.88106 8.451321,22.86374 18.189455,30.57422 13.46435,10.66083 33.83709,11.79511 55.83984,1.28711 a 11.925182,11.925182 0 1 0 -10.27735,-21.51953 c -17.00709,8.12219 -24.97905,6.11222 -30.75976,1.53515 -5.28105,-4.18144 -9.4531,-13.37878 -11.01366,-24.69531 27.89417,-1.23544 46.36219,-13.64203 53.32029,-30.3086 4.61312,-11.04965 3.84325,-23.56326 -2.5664,-33.30272 -6.40966,-9.73947 -18.53684,-15.85662 -32.31445,-15.41797 z m 0.75977,23.83593 c 7.02871,-0.22378 9.88041,2.02863 11.63281,4.69141 1.75239,2.66277 2.32851,6.58395 0.48242,11.00585 -2.70308,6.47461 -11.42907,14.79364 -30.91601,15.79493 1.01247,-6.21806 2.62301,-12.1314 4.76757,-17.01953 4.47401,-10.19763 9.7329,-14.33574 14.03321,-14.47266 z m -63.562498,51.34766 c -0.05236,7.70428 -1.252472,15.13327 -3.855469,20.91406 -4.36799,9.70053 -10.26787,15.12303 -22.748047,15.4043 -8.95519,0.20182 -10.937986,-2.11639 -12.066407,-4.25 -1.128422,-2.13362 -1.432343,-6.73198 1.437499,-12.38672 4.718159,-9.29667 16.979617,-19.51459 37.232424,-19.68164 z"
       id="path4514-3"
       inkscape:connector-curvature="0"
       inkscape:export-xdpi="192.92"
       inkscape:export-ydpi="192.92" />
    <path
       style="color:#000000;font-style:normal;font-variant:normal;font-weight:normal;font-stretch:normal;font-size:medium;line-height:normal;font-family:sans-serif;font-variant-ligatures:normal;font-variant-position:normal;font-variant-caps:normal;font-variant-numeric:normal;font-variant-alternates:normal;font-feature-settings:normal;text-indent:0;text-align:start;text-decoration:none;text-decoration-line:none;text-decoration-style:solid;text-decoration-color:#000000;letter-spacing:normal;word-spacing:normal;text-transform:none;writing-mode:lr-tb;direction:ltr;text-orientation:mixed;dominant-baseline:auto;baseline-shift:baseline;text-anchor:start;white-space:normal;shape-padding:0;clip-rule:nonzero;display:inline;overflow:visible;visibility:visible;opacity:1;isolation:auto;mix-blend-mode:normal;color-interpolation:sRGB;color-interpolation-filters:linearRGB;solid-color:#000000;solid-opacity:1;vector-effect:none;fill:#208f20;fill-opacity:1;fill-rule:nonzero;stroke:none;stroke-width:23.84797859;stroke-linecap:round;stroke-linejoin:round;stroke-miterlimit:4;stroke-dasharray:none;stroke-dashoffset:0;stroke-opacity:1;color-rendering:auto;image-rendering:auto;shape-rendering:auto;text-rendering:auto;enable-background:accumulate"
       d="m 123.31527,118.01389 c -17.02206,0.54194 -28.664283,14.03176 -35.111323,28.72656 -3.16272,7.20881 -5.37898,15.12943 -6.66797,23.3164 -4.20725,-16.34882 -12.645948,-31.65168 -27.105466,-40.16015 -15.077087,-8.87187 -35.960155,-7.3822 -55.37304541,6.78125 A 11.925182,11.925182 0 1 0 13.112152,155.94357 c 14.356921,-10.47466 22.239743,-9.60117 29.222655,-5.49219 5.411818,3.1845 10.591415,10.17334 14.044923,19.00977 -26.216806,1.61776 -45.748139,15.64585 -54.3652334,32.625 -5.491951,10.82135 -6.997347,23.47042 -1.25390701,34.33008 5.74344101,10.85965 18.70604841,17.279 33.68554541,16.9414 20.993987,-0.47314 36.763033,-13.47653 43.957032,-29.45312 2.02367,-4.4942 3.47185,-9.21595 4.49414,-14.04297 2.90601,11.88106 8.45132,22.86374 18.189453,30.57422 13.46435,10.66083 33.83708,11.79511 55.83984,1.28711 a 11.925182,11.925182 0 1 0 -10.27735,-21.51953 c -17.0071,8.12219 -24.97905,6.11222 -30.75976,1.53515 -5.28105,-4.18144 -9.45309,-13.37878 -11.01366,-24.69531 27.89416,-1.23544 46.36219,-13.64203 53.3203,-30.3086 4.61311,-11.04965 3.84325,-23.56326 -2.56641,-33.30272 -6.40966,-9.73947 -18.53684,-15.85662 -32.31445,-15.41797 z m 0.75977,23.83593 c 7.0287,-0.22378 9.8804,2.02863 11.63281,4.69141 1.7524,2.66277 2.32852,6.58395 0.48242,11.00585 -2.70308,6.47461 -11.42907,14.79364 -30.91601,15.79493 1.01247,-6.21806 2.62301,-12.1314 4.76758,-17.01953 4.474,-10.19763 9.73289,-14.33574 14.0332,-14.47266 z m -63.562497,51.34766 c -0.05236,7.70428 -1.252472,15.13327 -3.855469,20.91406 -4.367991,9.70053 -10.267869,15.12303 -22.748048,15.4043 -8.955189,0.20182 -10.937983,-2.11639 -12.066405,-4.25 -1.128422,-2.13362 -1.432344,-6.73198 1.4375,-12.38672 4.718156,-9.29667 16.979614,-19.51459 37.232422,-19.68164 z"
       id="path4514"
       inkscape:connector-curvature="0"
       inkscape:export-xdpi="192.92"
       inkscape:export-ydpi="192.92" />
    <path
       style="color:#000000;font-style:normal;font-variant:normal;font-weight:normal;font-stretch:normal;font-size:medium;line-height:normal;font-family:sans-serif;font-variant-ligatures:normal;font-variant-position:normal;font-variant-caps:normal;font-variant-numeric:normal;font-variant-alternates:normal;font-feature-settings:normal;text-indent:0;text-align:start;text-decoration:none;text-decoration-line:none;text-decoration-style:solid;text-decoration-color:#000000;letter-spacing:normal;word-spacing:normal;text-transform:none;writing-mode:lr-tb;direction:ltr;text-orientation:mixed;dominant-baseline:auto;baseline-shift:baseline;text-anchor:start;white-space:normal;shape-padding:0;clip-rule:nonzero;display:inline;overflow:visible;visibility:visible;opacity:1;isolation:auto;mix-blend-mode:normal;color-interpolation:sRGB;color-interpolation-filters:linearRGB;solid-color:#000000;solid-opacity:1;vector-effect:none;fill:url(#radialGradient4658);fill-opacity:1;fill-rule:nonzero;stroke:none;stroke-width:23.84797859;stroke-linecap:round;stroke-linejoin:round;stroke-miterlimit:4;stroke-dasharray:none;stroke-dashoffset:0;stroke-opacity:1;color-rendering:auto;image-rendering:auto;shape-rendering:auto;text-rendering:auto;enable-background:accumulate"
       d="m 123.31526,118.01389 c -17.02208,0.54194 -28.664304,14.03176 -35.11134,28.72656 -3.16272,7.20881 -5.378987,15.12943 -6.667977,23.3164 C 77.328697,153.70803 68.88999,138.40517 54.430477,129.8967 39.353391,121.02483 18.470322,122.5145 -0.94257063,136.67795 A 11.925182,11.925182 0 1 0 13.112118,155.94357 c 14.356923,-10.47466 22.239744,-9.60117 29.222655,-5.49219 5.411818,3.1845 10.591415,10.17334 14.044923,19.00977 -26.216805,1.61776 -45.748139,15.64585 -54.3652354,32.625 -5.4919512,10.82135 -6.9973469,23.47042 -1.25390693,34.33008 5.74344163,10.85965 18.70605033,17.279 33.68554933,16.9414 20.993987,-0.47314 36.763027,-13.47653 43.957034,-29.45312 2.023656,-4.4942 3.471846,-9.21595 4.494136,-14.04297 2.906017,11.88106 8.451323,22.86374 18.189467,30.57422 13.46436,10.66083 33.83708,11.79511 55.83985,1.28711 a 11.925182,11.925182 0 1 0 -10.27735,-21.51953 c -17.00711,8.12219 -24.97905,6.11222 -30.75976,1.53515 -5.28105,-4.18144 -9.45311,-13.37878 -11.01367,-24.69531 27.89416,-1.23544 46.3622,-13.64203 53.32031,-30.3086 4.61311,-11.04965 3.84325,-23.56326 -2.56641,-33.30272 -6.40966,-9.73947 -18.53684,-15.85662 -32.31445,-15.41797 z m 0.75977,23.83593 c 7.02868,-0.22377 9.88039,2.02863 11.63281,4.69141 1.7524,2.66277 2.32852,6.58395 0.48241,11.00585 -2.70308,6.47461 -11.42906,14.79364 -30.91602,15.79493 1.01248,-6.21806 2.62302,-12.1314 4.76758,-17.01953 4.47402,-10.19763 9.73291,-14.33574 14.03322,-14.47266 z m -63.562524,51.34766 c -0.0524,7.70428 -1.25247,15.13327 -3.85547,20.91406 -4.367986,9.70053 -10.267866,15.12303 -22.748042,15.4043 -8.955191,0.20182 -10.937984,-2.11639 -12.066408,-4.25 -1.128421,-2.13362 -1.432343,-6.73198 1.4375,-12.38672 4.718158,-9.29667 16.979616,-19.51459 37.23242,-19.68164 z"
       id="path4514-9"
       inkscape:connector-curvature="0"
       inkscape:export-xdpi="192.92"
       inkscape:export-ydpi="192.92" />
    <text
       xml:space="preserve"
       style="font-style:normal;font-variant:normal;font-weight:normal;font-stretch:normal;font-size:10.58333302px;line-height:1.25;font-family:Overlock;-inkscape-font-specification:'Overlock, Normal';font-variant-ligatures:normal;font-variant-caps:normal;font-variant-numeric:normal;font-feature-settings:normal;text-align:start;letter-spacing:0px;word-spacing:0px;writing-mode:lr-tb;text-anchor:start;fill:#000000;fill-opacity:1;stroke:none;stroke-width:0.26458332"
       x="562.94635"
       y="402.45581"
       id="text1404"><tspan
         sodipodi:role="line"
         id="tspan1402"
         x="562.94635"
         y="412.15863"
         style="stroke-width:0.26458332" /></text>
    <text
       xml:space="preserve"
       style="font-style:normal;font-weight:normal;font-size:35.12888336px;line-height:1.25;font-family:sans-serif;letter-spacing:0px;word-spacing:0px;fill:#3b923b;fill-opacity:1;stroke:none;stroke-width:0.87822205"
       x="500.31012"
       y="545.89197"
       id="text836-0"><tspan
         sodipodi:role="line"
         id="tspan834-5"
         x="500.31012"
         y="576.97278"
         style="font-style:normal;font-variant:normal;font-weight:900;font-stretch:normal;font-size:168.61863708px;font-family:Overlock;-inkscape-font-specification:'Overlock, Heavy';font-variant-ligatures:normal;font-variant-caps:normal;font-variant-numeric:normal;font-feature-settings:normal;text-align:start;writing-mode:lr-tb;text-anchor:start;fill:#3b923b;fill-opacity:1;stroke-width:0.87822205" /></text>
    <text
       xml:space="preserve"
       style="font-style:normal;font-variant:normal;font-weight:normal;font-stretch:normal;font-size:10.58333302px;line-height:1.25;font-family:Overlock;-inkscape-font-specification:'Overlock, Normal';font-variant-ligatures:normal;font-variant-caps:normal;font-variant-numeric:normal;font-feature-settings:normal;text-align:start;letter-spacing:0px;word-spacing:0px;writing-mode:lr-tb;text-anchor:start;fill:#ffffff;fill-opacity:1;stroke:none;stroke-width:0.26458332"
       x="377.01755"
       y="442.26031"
       id="text1426"><tspan
         sodipodi:role="line"
         id="tspan1424"
         x="377.01755"
         y="442.26031"
         style="font-style:normal;font-variant:normal;font-weight:normal;font-stretch:normal;font-size:70.55555725px;font-family:Overlock;-inkscape-font-specification:'Overlock, Normal';font-variant-ligatures:normal;font-variant-caps:normal;font-variant-numeric:normal;font-feature-settings:normal;text-align:start;writing-mode:lr-tb;text-anchor:start;fill:#ffffff;fill-opacity:1;stroke-width:0.26458332">A Social Network for Humans</tspan></text>
  </g>
</svg>
